<svg aria-roledescription="mindmap" viewBox="5 5 895.3662719726562 363.0269470214844" style="max-width: 100%;" xmlns="http://www.w3.org/2000/svg" width="100%" id="graph-div" height="100%" xmlns:xlink="http://www.w3.org/1999/xlink"><style>@import url("https://cdnjs.cloudflare.com/ajax/libs/font-awesome/6.2.1/css/all.min.css");'</style><style>#graph-div{font-family:"trebuchet ms",verdana,arial,sans-serif;font-size:16px;fill:#000000;}#graph-div .error-icon{fill:#552222;}#graph-div .error-text{fill:#552222;stroke:#552222;}#graph-div .edge-thickness-normal{stroke-width:2px;}#graph-div .edge-thickness-thick{stroke-width:3.5px;}#graph-div .edge-pattern-solid{stroke-dasharray:0;}#graph-div .edge-pattern-dashed{stroke-dasharray:3;}#graph-div .edge-pattern-dotted{stroke-dasharray:2;}#graph-div .marker{fill:#666;stroke:#666;}#graph-div .marker.cross{stroke:#666;}#graph-div svg{font-family:"trebuchet ms",verdana,arial,sans-serif;font-size:16px;}#graph-div .edge{stroke-width:3;}#graph-div .section--1 rect,#graph-div .section--1 path,#graph-div .section--1 circle,#graph-div .section--1 polygon,#graph-div .section--1 path{fill:#555;}#graph-div .section--1 text{fill:#F4F4F4;}#graph-div .node-icon--1{font-size:40px;color:#F4F4F4;}#graph-div .section-edge--1{stroke:#555;}#graph-div .edge-depth--1{stroke-width:17;}#graph-div .section--1 line{stroke:#aaaaaa;stroke-width:3;}#graph-div .disabled,#graph-div .disabled circle,#graph-div .disabled text{fill:lightgray;}#graph-div .disabled text{fill:#efefef;}#graph-div .section-0 rect,#graph-div .section-0 path,#graph-div .section-0 circle,#graph-div .section-0 polygon,#graph-div .section-0 path{fill:#F4F4F4;}#graph-div .section-0 text{fill:calculated;}#graph-div .node-icon-0{font-size:40px;color:calculated;}#graph-div .section-edge-0{stroke:#F4F4F4;}#graph-div .edge-depth-0{stroke-width:14;}#graph-div .section-0 line{stroke:#0b0b0b;stroke-width:3;}#graph-div .disabled,#graph-div .disabled circle,#graph-div .disabled text{fill:lightgray;}#graph-div .disabled text{fill:#efefef;}#graph-div .section-1 rect,#graph-div .section-1 path,#graph-div .section-1 circle,#graph-div .section-1 polygon,#graph-div .section-1 path{fill:#555;}#graph-div .section-1 text{fill:#F4F4F4;}#graph-div .node-icon-1{font-size:40px;color:#F4F4F4;}#graph-div .section-edge-1{stroke:#555;}#graph-div .edge-depth-1{stroke-width:11;}#graph-div .section-1 line{stroke:#aaaaaa;stroke-width:3;}#graph-div .disabled,#graph-div .disabled circle,#graph-div .disabled text{fill:lightgray;}#graph-div .disabled text{fill:#efefef;}#graph-div .section-2 rect,#graph-div .section-2 path,#graph-div .section-2 circle,#graph-div .section-2 polygon,#graph-div .section-2 path{fill:#BBB;}#graph-div .section-2 text{fill:calculated;}#graph-div .node-icon-2{font-size:40px;color:calculated;}#graph-div .section-edge-2{stroke:#BBB;}#graph-div .edge-depth-2{stroke-width:8;}#graph-div .section-2 line{stroke:#444444;stroke-width:3;}#graph-div .disabled,#graph-div .disabled circle,#graph-div .disabled text{fill:lightgray;}#graph-div .disabled text{fill:#efefef;}#graph-div .section-3 rect,#graph-div .section-3 path,#graph-div .section-3 circle,#graph-div .section-3 polygon,#graph-div .section-3 path{fill:#777;}#graph-div .section-3 text{fill:calculated;}#graph-div .node-icon-3{font-size:40px;color:calculated;}#graph-div .section-edge-3{stroke:#777;}#graph-div .edge-depth-3{stroke-width:5;}#graph-div .section-3 line{stroke:#888888;stroke-width:3;}#graph-div .disabled,#graph-div .disabled circle,#graph-div .disabled text{fill:lightgray;}#graph-div .disabled text{fill:#efefef;}#graph-div .section-4 rect,#graph-div .section-4 path,#graph-div .section-4 circle,#graph-div .section-4 polygon,#graph-div .section-4 path{fill:#999;}#graph-div .section-4 text{fill:calculated;}#graph-div .node-icon-4{font-size:40px;color:calculated;}#graph-div .section-edge-4{stroke:#999;}#graph-div .edge-depth-4{stroke-width:2;}#graph-div .section-4 line{stroke:#666666;stroke-width:3;}#graph-div .disabled,#graph-div .disabled circle,#graph-div .disabled text{fill:lightgray;}#graph-div .disabled text{fill:#efefef;}#graph-div .section-5 rect,#graph-div .section-5 path,#graph-div .section-5 circle,#graph-div .section-5 polygon,#graph-div .section-5 path{fill:#DDD;}#graph-div .section-5 text{fill:calculated;}#graph-div .node-icon-5{font-size:40px;color:calculated;}#graph-div .section-edge-5{stroke:#DDD;}#graph-div .edge-depth-5{stroke-width:-1;}#graph-div .section-5 line{stroke:#222222;stroke-width:3;}#graph-div .disabled,#graph-div .disabled circle,#graph-div .disabled text{fill:lightgray;}#graph-div .disabled text{fill:#efefef;}#graph-div .section-6 rect,#graph-div .section-6 path,#graph-div .section-6 circle,#graph-div .section-6 polygon,#graph-div .section-6 path{fill:#FFF;}#graph-div .section-6 text{fill:calculated;}#graph-div .node-icon-6{font-size:40px;color:calculated;}#graph-div .section-edge-6{stroke:#FFF;}#graph-div .edge-depth-6{stroke-width:-4;}#graph-div .section-6 line{stroke:#000000;stroke-width:3;}#graph-div .disabled,#graph-div .disabled circle,#graph-div .disabled text{fill:lightgray;}#graph-div .disabled text{fill:#efefef;}#graph-div .section-7 rect,#graph-div .section-7 path,#graph-div .section-7 circle,#graph-div .section-7 polygon,#graph-div .section-7 path{fill:#DDD;}#graph-div .section-7 text{fill:calculated;}#graph-div .node-icon-7{font-size:40px;color:calculated;}#graph-div .section-edge-7{stroke:#DDD;}#graph-div .edge-depth-7{stroke-width:-7;}#graph-div .section-7 line{stroke:#222222;stroke-width:3;}#graph-div .disabled,#graph-div .disabled circle,#graph-div .disabled text{fill:lightgray;}#graph-div .disabled text{fill:#efefef;}#graph-div .section-8 rect,#graph-div .section-8 path,#graph-div .section-8 circle,#graph-div .section-8 polygon,#graph-div .section-8 path{fill:#BBB;}#graph-div .section-8 text{fill:calculated;}#graph-div .node-icon-8{font-size:40px;color:calculated;}#graph-div .section-edge-8{stroke:#BBB;}#graph-div .edge-depth-8{stroke-width:-10;}#graph-div .section-8 line{stroke:#444444;stroke-width:3;}#graph-div .disabled,#graph-div .disabled circle,#graph-div .disabled text{fill:lightgray;}#graph-div .disabled text{fill:#efefef;}#graph-div .section-9 rect,#graph-div .section-9 path,#graph-div .section-9 circle,#graph-div .section-9 polygon,#graph-div .section-9 path{fill:#999;}#graph-div .section-9 text{fill:calculated;}#graph-div .node-icon-9{font-size:40px;color:calculated;}#graph-div .section-edge-9{stroke:#999;}#graph-div .edge-depth-9{stroke-width:-13;}#graph-div .section-9 line{stroke:#666666;stroke-width:3;}#graph-div .disabled,#graph-div .disabled circle,#graph-div .disabled text{fill:lightgray;}#graph-div .disabled text{fill:#efefef;}#graph-div .section-10 rect,#graph-div .section-10 path,#graph-div .section-10 circle,#graph-div .section-10 polygon,#graph-div .section-10 path{fill:#777;}#graph-div .section-10 text{fill:calculated;}#graph-div .node-icon-10{font-size:40px;color:calculated;}#graph-div .section-edge-10{stroke:#777;}#graph-div .edge-depth-10{stroke-width:-16;}#graph-div .section-10 line{stroke:#888888;stroke-width:3;}#graph-div .disabled,#graph-div .disabled circle,#graph-div .disabled text{fill:lightgray;}#graph-div .disabled text{fill:#efefef;}#graph-div .section-root rect,#graph-div .section-root path,#graph-div .section-root circle,#graph-div .section-root polygon{fill:hsl(0, 0%, 70.6862745098%);}#graph-div .section-root text{fill:#333;}#graph-div .icon-container{height:100%;display:flex;justify-content:center;align-items:center;}#graph-div .edge{fill:none;}#graph-div :root{--mermaid-font-family:"trebuchet ms",verdana,arial,sans-serif;}</style><g></g><g></g><g class="mindmap-edges"><path class="edge section-edge--1 edge-depth-1" d="M 656.0391746155608,146.39223671808048 L 667.3679764684852,180.9308230912724 L678.6967783214095,215.46940946446432"></path><path class="edge section-edge--1 edge-depth-1" d="M 639.3759809276696,141.15508782624173 L 601.0823948951421,169.95379012463653 L562.7888088626146,198.75249242303133"></path><path class="edge section-edge--1 edge-depth-1" d="M 662.0928036892374,121.65621291141508 L 693.7912449675994,90.68305579158275 L725.4896862459614,59.70989867175041"></path><path class="edge section-edge--1 edge-depth-1" d="M 647.0787553068021,117.76455360662379 L 636.7206178012143,83.0196824316491 L626.3624802956265,48.2748112566744"></path><path class="edge section-edge--1 edge-depth-1" d="M 666.1839771938409,129.82130712984144 L 742.314438856407,117.91326851617859 L818.4449005189732,106.00522990251574"></path><path class="edge section-edge--1 edge-depth-1" d="M 637.5722305244811,126.24170991236839 L 575.9609051594363,99.89572207312617 L514.3495797943914,73.54973423388394"></path><path class="edge section-edge--1 edge-depth-1" d="M 665.7059395174981,136.53410280134307 L 738.0668673849186,158.70761298681478 L810.4277952523391,180.8811231722865"></path><path class="edge section-edge--1 edge-depth-0" d="M 460.3951225992786,151.56983683344004 L 548.418170224313,142.61378160018646 L636.4412178493475,133.65772636693288"></path><path class="edge section-edge-5 edge-depth-1" d="M 307.69858932360944,238.77373790742632 L 383.03391901622933,269.34309786122424 L458.3692487088491,299.9124578150221"></path><path class="edge section-edge-5 edge-depth-1" d="M 280.69340779732556,240.4299948778683 L 214.80116271586996,277.11332034089867 L148.9089176344144,313.796645803929"></path><path class="edge section-edge-5 edge-depth-1" d="M 292.8557112111457,248.10401509421868 L 290.4588827535056,286.1303342477012 L288.06205429586544,324.1566534011838"></path><path class="edge section-edge-5 edge-depth-1" d="M 278.8326374665914,232.13422221272333 L 186.8605876736711,225.9921613632104 L94.88853788075079,219.85010051369756"></path><path class="edge section-edge-5 edge-depth-1" d="M 281.80475363109036,224.12645673573576 L 237.68397478652736,190.9940991024727 L193.56319594196435,157.86174146920962"></path><path class="edge section-edge-5 edge-depth-0" d="M 432.2062505528021,160.08930097671663 L 369.6357341004257,193.11096076613356 L307.06521764804927,226.1326205555505"></path><path class="edge section-edge-1 edge-depth-0" d="M 432.2617995377102,145.98283635045263 L 385.4897076711851,120.82588117413482 L338.7176158046599,95.66892599781701"></path></g><g class="mindmap-nodes"><g transform="translate(373.8706053535092, 134.1881983370747)" class="mindmap-node section-root"><g><path d="M0 0 a21.48046875,21.48046875 0 0,1 35.80078125,-14.3203125
      a50.12109375,50.12109375 1 0,1 57.28125,-14.3203125
      a35.80078125,35.80078125 1 0,1 50.12109375,28.640625

      a21.48046875,21.48046875 1 0,1 21.48046875,13.229999999999999
      a28.640625,28.640625 1 0,1 -21.48046875,24.57

      a35.80078125,21.48046875 1 0,1 -35.80078125,21.48046875
      a50.12109375,50.12109375 1 0,1 -71.6015625,0
      a21.48046875,21.48046875 1 0,1 -35.80078125,-21.48046875

      a21.48046875,21.48046875 1 0,1 -14.3203125,-13.229999999999999
      a28.640625,28.640625 1 0,1 14.3203125,-24.57

    H0 V0 Z" class="node-bkg node-cloud" id="node-0"></path></g><g transform="translate(71.6015625, 5)"><text text-anchor="middle" dominant-baseline="middle" alignment-baseline="middle" dy="1em"><tspan dy="1em" x="0">Delivery   Manager</tspan></text></g></g><g transform="translate(587.3876100951169, 108.23936486329819)" class="mindmap-node section-root"><g><rect width="127.953125" ry="20" rx="20" height="47.8" class="node-bkg node-rounded-rect" id="node-1"></rect></g><g transform="translate(63.9765625, 10)"><text text-anchor="middle" dominant-baseline="middle" alignment-baseline="middle" dy="1em"><tspan dy="1em" x="0">Управление</tspan></text></g></g><g transform="translate(622.4108428418534, 210.8222813192466)" class="mindmap-node section-root"><g><path d="M0 32.8 v-27.799999999999997 q0,-5 5,-5 h111.921875 q5,0 5,5 v32.8 H0 Z" class="node-bkg node-no-border" id="node-2"></path><line y2="37.8" x2="121.921875" y1="37.8" x1="0" class="node-line--1"></line></g><g transform="translate(60.9609375, 5)"><a href="roadmap/management/change" target="_top" title="change" xlink:actuate="onRequest" xlink:href="roadmap/management/change" xlink:show="new" xlink:title="change" xlink:type="simple"><text text-anchor="middle" dominant-baseline="middle" alignment-baseline="middle" dy="1em"><tspan dy="1em" x="0">Изменениями</tspan></text></a></g></g><g transform="translate(510.9412421951673, 188.86821538597485)" class="mindmap-node section-root"><g><path d="M0 32.8 v-27.799999999999997 q0,-5 5,-5 h69.71875 q5,0 5,5 v32.8 H0 Z" class="node-bkg node-no-border" id="node-3"></path><line y2="37.8" x2="79.71875" y1="37.8" x1="0" class="node-line--1"></line></g><g transform="translate(39.859375, 5)"><a href="roadmap/management/people" target="_top" title="people" xlink:actuate="onRequest" xlink:href="roadmap/management/people" xlink:show="new" xlink:title="people" xlink:type="simple"><text text-anchor="middle" dominant-baseline="middle" alignment-baseline="middle" dy="1em"><tspan dy="1em" x="0">Людьми</tspan></text></a></g></g><g transform="translate(696.4448798400819, 30.326746719867288)" class="mindmap-node section-root"><g><path d="M0 32.8 v-27.799999999999997 q0,-5 5,-5 h69.546875 q5,0 5,5 v32.8 H0 Z" class="node-bkg node-no-border" id="node-4"></path><line y2="37.8" x2="79.546875" y1="37.8" x1="0" class="node-line--1"></line></g><g transform="translate(39.7734375, 5)"><a href="roadmap/management/job" target="_top" title="job" xlink:actuate="onRequest" xlink:href="roadmap/management/job" xlink:show="new" xlink:title="job" xlink:type="simple"><text text-anchor="middle" dominant-baseline="middle" alignment-baseline="middle" dy="1em"><tspan dy="1em" x="0">Работой</tspan></text></a></g></g><g transform="translate(577.2098755073117, 15)" class="mindmap-node section-root"><g><path d="M0 32.8 v-27.799999999999997 q0,-5 5,-5 h79.734375 q5,0 5,5 v32.8 H0 Z" class="node-bkg node-no-border" id="node-5"></path><line y2="37.8" x2="89.734375" y1="37.8" x1="0" class="node-line--1"></line></g><g transform="translate(44.8671875, 5)"><a href="roadmap/management/product" target="_top" title="product" xlink:actuate="onRequest" xlink:href="roadmap/management/product" xlink:show="new" xlink:title="product" xlink:type="simple"><text text-anchor="middle" dominant-baseline="middle" alignment-baseline="middle" dy="1em"><tspan dy="1em" x="0">Продуктом</tspan></text></a></g></g><g transform="translate(776.1631426176972, 84.78717216905898)" class="mindmap-node section-root"><g><path d="M0 32.8 v-27.799999999999997 q0,-5 5,-5 h104.203125 q5,0 5,5 v32.8 H0 Z" class="node-bkg node-no-border" id="node-6"></path><line y2="37.8" x2="114.203125" y1="37.8" x1="0" class="node-line--1"></line></g><g transform="translate(57.1015625, 5)"><a href="roadmap/management/environment" target="_top" title="environment" xlink:actuate="onRequest" xlink:href="roadmap/management/environment" xlink:show="new" xlink:title="environment" xlink:type="simple"><text text-anchor="middle" dominant-baseline="middle" alignment-baseline="middle" dy="1em"><tspan dy="1em" x="0">Окружением</tspan></text></a></g></g><g transform="translate(455.08888772375565, 48.752079282954135)" class="mindmap-node section-root"><g><path d="M0 32.8 v-27.799999999999997 q0,-5 5,-5 h80.9375 q5,0 5,5 v32.8 H0 Z" class="node-bkg node-no-border" id="node-7"></path><line y2="37.8" x2="90.9375" y1="37.8" x1="0" class="node-line--1"></line></g><g transform="translate(45.46875, 5)"><a href="roadmap/management/groups" target="_top" title="groups" xlink:actuate="onRequest" xlink:href="roadmap/management/groups" xlink:show="new" xlink:title="groups" xlink:type="simple"><text text-anchor="middle" dominant-baseline="middle" alignment-baseline="middle" dy="1em"><tspan dy="1em" x="0">Группами</tspan></text></a></g></g><g transform="translate(774.6679996747204, 166.37586111033136)" class="mindmap-node section-root"><g><path d="M0 32.8 v-27.799999999999997 q0,-5 5,-5 h90.203125 q5,0 5,5 v32.8 H0 Z" class="node-bkg node-no-border" id="node-8"></path><line y2="37.8" x2="100.203125" y1="37.8" x1="0" class="node-line--1"></line></g><g transform="translate(50.1015625, 5)"><a href="roadmap/management/project" target="_top" title="project" xlink:actuate="onRequest" xlink:href="roadmap/management/project" xlink:show="new" xlink:title="project" xlink:type="simple"><text text-anchor="middle" dominant-baseline="middle" alignment-baseline="middle" dy="1em"><tspan dy="1em" x="0">Проектами</tspan></text></a></g></g><g transform="translate(202.27586284734218, 200.43372395813185)" class="mindmap-node section-7"><g><rect width="183.046875" ry="20" rx="20" height="65.39999847412109" class="node-bkg node-rounded-rect" id="node-9"></rect></g><g transform="translate(91.5234375, 10)"><text text-anchor="middle" dominant-baseline="middle" alignment-baseline="middle" dy="1em"><tspan dy="1em" x="0">Профессиональное</tspan><tspan dy="1.1em" x="0">развитие</tspan></text></g></g><g transform="translate(376.95603768511637, 286.652472527256)" class="mindmap-node section-7"><g><path d="M0 32.8 v-27.799999999999997 q0,-5 5,-5 h180.625 q5,0 5,5 v32.8 H0 Z" class="node-bkg node-no-border" id="node-10"></path><line y2="37.8" x2="190.625" y1="37.8" x1="0" class="node-line-0"></line></g><g transform="translate(95.3125, 5)"><a href="roadmap/professional-growth/manage-information" target="_top" title="manage-information" xlink:actuate="onRequest" xlink:href="roadmap/professional-growth/manage-information" xlink:show="new" xlink:title="manage-information" xlink:type="simple"><text text-anchor="middle" dominant-baseline="middle" alignment-baseline="middle" dy="1em"><tspan dy="1em" x="0">Работа   с   информацией</tspan></text></a></g></g><g transform="translate(73.63115008439775, 293.3929182495443)" class="mindmap-node section-7"><g><path d="M0 50.39999847412109 v-45.39999847412109 q0,-5 5,-5 h114.34375 q5,0 5,5 v50.39999847412109 H0 Z" class="node-bkg node-no-border" id="node-11"></path><line y2="55.39999847412109" x2="124.34375" y1="55.39999847412109" x1="0" class="node-line-0"></line></g><g transform="translate(62.171875, 5)"><a href="roadmap/professional-growth/technical-skills" target="_top" title="technical-skills" xlink:actuate="onRequest" xlink:href="roadmap/professional-growth/technical-skills" xlink:show="new" xlink:title="technical-skills" xlink:type="simple"><text text-anchor="middle" dominant-baseline="middle" alignment-baseline="middle" dy="1em"><tspan dy="1em" x="0">Техническое</tspan><tspan dy="1.1em" x="0">совершенство</tspan></text></a></g></g><g transform="translate(247.18877765966897, 320.2269453002101)" class="mindmap-node section-7"><g><path d="M0 32.8 v-27.799999999999997 q0,-5 5,-5 h69.859375 q5,0 5,5 v32.8 H0 Z" class="node-bkg node-no-border" id="node-12"></path><line y2="37.8" x2="79.859375" y1="37.8" x1="0" class="node-line-0"></line></g><g transform="translate(39.9296875, 5)"><a href="roadmap/professional-growth/coaching" target="_top" title="coaching" xlink:actuate="onRequest" xlink:href="roadmap/professional-growth/coaching" xlink:show="new" xlink:title="coaching" xlink:type="simple"><text text-anchor="middle" dominant-baseline="middle" alignment-baseline="middle" dy="1em"><tspan dy="1em" x="0">Коучинг</tspan></text></a></g></g><g transform="translate(15, 199.95059953122848)" class="mindmap-node section-7"><g><path d="M0 32.8 v-27.799999999999997 q0,-5 5,-5 h119.84375 q5,0 5,5 v32.8 H0 Z" class="node-bkg node-no-border" id="node-13"></path><line y2="37.8" x2="129.84375" y1="37.8" x1="0" class="node-line-0"></line></g><g transform="translate(64.921875, 5)"><a href="roadmap/professional-growth/communications" target="_top" title="communications" xlink:actuate="onRequest" xlink:href="roadmap/professional-growth/communications" xlink:show="new" xlink:title="communications" xlink:type="simple"><text text-anchor="middle" dominant-baseline="middle" alignment-baseline="middle" dy="1em"><tspan dy="1em" x="0">Коммуникации</tspan></text></a></g></g><g transform="translate(135.74833672571253, 129.95447500975297)" class="mindmap-node section-7"><g><path d="M0 32.8 v-27.799999999999997 q0,-5 5,-5 h81.640625 q5,0 5,5 v32.8 H0 Z" class="node-bkg node-no-border" id="node-14"></path><line y2="37.8" x2="91.640625" y1="37.8" x1="0" class="node-line-0"></line></g><g transform="translate(45.8203125, 5)"><a href="roadmap/professional-growth/training" target="_top" title="training" xlink:actuate="onRequest" xlink:href="roadmap/professional-growth/training" xlink:show="new" xlink:title="training" xlink:type="simple"><text text-anchor="middle" dominant-baseline="middle" alignment-baseline="middle" dy="1em"><tspan dy="1em" x="0">Обучение</tspan></text></a></g></g><g transform="translate(237.1088099888609, 69.66356401119492)" class="mindmap-node section-1"><g><path d="M0 32.8 v-27.799999999999997 q0,-5 5,-5 h166.796875 q5,0 5,5 v32.8 H0 Z" class="node-bkg node-no-border" id="node-15"></path><line y2="37.8" x2="176.796875" y1="37.8" x1="0" class="node-line-1"></line></g><g transform="translate(88.3984375, 5)"><text text-anchor="middle" dominant-baseline="middle" alignment-baseline="middle" dy="1em"><tspan dy="1em" x="0">Знание   других   ролей</tspan></text></g></g></g></svg>
